My Self-evaluation:
-----------------------
Time spent:   _9_ Hours
-----------------------
Expected Grade: _90_/100%
-----------------------
Justification:
I was able to pass a majority of the tests. My documentation is good.
I was able (after many hours) to figure out how to properly parse and split in my read XMV.